"artwork_id","name","description","height","width","price","sold","image","image_thumb","cat_id"
"1","Smoke on the Mountain","Acrylic on canvas","36","24","0.00","1","netta_smoke_mountain","netta_smoke_mountain_thb","2"
"2","Seascape","Acrylic on Canvas","14","18","0.00","1","netta_waterscape","netta_waterscape_thb","1"
"3","Watermelon Fan","Pen & Ink and watercolour","11","9","0.00","1","netta_watermelon_fan","netta_watermelon_fan_thb","1"
"4","Antique Fan","Water colour","11","9","150.00","0","netta_antique_fan","netta_antique_fan_thb","1"
"5","Sunflower Vase","sunflower in the earth vase","30","30","0.00","1","netta_sunflower_vase","netta_sunflower_vase_thb","2"
"6","Irises & Dragonfly","Pastels Irises and dragonfly at Audubon park","11","9","150.00","0","netta_irises_and_dragonfly","netta_irises_and_dragonfly_thb","1"
"7","First Day of Spring","Oil Painting","36","24","3000.00","0","netta_first_day_spring","netta_first_day_spring_thb","2"
"8","Oak Tree","Acrylic on Canvas","20","28","550.00","0","netta_oaktree","netta_oaktree_thb","2"
"9","Mermaid","","12","9","0.00","1","netta_mermaid","netta_mermaid_thb","1"
"10","Ode to Klimt`s Kiss","Colored pencil, marker and gold foil on paper","9","12","NULL","1","netta_ode_klimt_kiss","netta_ode_klimt_kiss_thb","1"
"11","Valentines Day Inspired","","20","16","0.00","1","netta_valentine","netta_valentine_thb","2"
"12","Reflections","","20","16","500.00","0","netta_reflections","netta_reflections_thb","2"
"13","Celestial Garden","","36","24","500.00","1","netta_celestial_garden","netta_celestial_garden_thb","2"
"14","Sunrise at Angel's Gate","","36","24","500.00","1","netta_sunrise","netta_sunrise_thb","2"
"15","Sunflower","","24","18","700.00","0","netta_sunflower","netta_sunflower_thb","2"
"31","Celestial Vibrations","","24","18","600.00","0","Celestial Vibrations","Celestial Vibrations_thb","2"
"32","Cosmic Daisies","","24","18","600.00","0","Cosmic Daises","Cosmic Daises_thb","2"
"35","Reflections in Green and Blue","Acrylic Abstract","36","24","500.00","0","Reflections in Green and Blue","Reflections in Green and Blue_thb","2"
"38","mountainlines","water color","14","12","350.00","0","P1140232","P1140232_thb","1"
"39","Green Earth","","9","11","75.00","0","P1140214","P1140214_thb","1"
"40","fall is here"," markers","9","7","250.00","0","P1140188","P1140188_thb","1"
"41","Golden Orange","markers","9","7","250.00","0","P1140228","P1140228_thb","1"
"42","Klimt Tree","markers","12","9","250.00","0","P1140193","P1140193_thb","1"
"43","Evolving Series","Pen and Ink","15","11","275.00","0","IMG_3809","IMG_3809_thb","1"
"44","Evolving Series","Pen and Ink","15","11","275.00","0","IMG_3827","IMG_3827_thb","1"
"45","First of the Evolution","Pen and Ink","15","11","275.00","0","IMG_3835","IMG_3835_thb","1"
"46","Evolving Series","Pen and Ink","9","7","175.00","0","IMG_3826","IMG_3826_thb","1"
"47","Evolving Series","Pen and Ink","14","11","250.00","0","IMG_3822","IMG_3822_thb","1"
"50","Exploring the Heart ","pen and ink","11","9","350.00","0","2014-10-13 10.10.29","2014-10-13 10.10.29_thb","1"
"51","wisdom, power and love","pen and ink","11","9","250.00","0","20141016_080530-1","20141016_080530-1_thb","1"
"54","Gardenica","","12","12","0.00","0","P1160429","P1160429_thb","1"
